project_2.sim/sim_1/behav/xsim/dma_controller_tb.vcd
$date
   Wed Mar 26 14:06:02 2025
$end

$version
  2024.2.0
  $dumpfile ("dma_controller_tb.vcd") 
$end

$timescale
  1ps
$end

$scope module master_dma_controller_tb $end
$var reg 1 ! clk $end
$var reg 1 " reset $end
$var reg 1 # trigger $end
$var reg 5 $ length [4:0] $end
$var reg 32 % source_address [31:0] $end
$var reg 32 & destination_address [31:0] $end
$var wire 1 ' done $end
$var wire 32 ( ARADDR [31:0] $end
$var wire 1 ) ARVALID $end
$var wire 1 * RREADY $end
$var wire 32 + AWADDR [31:0] $end
$var wire 1 , AWVALID $end
$var wire 32 - WDATA [31:0] $end
$var wire 1 . WVALID $end
$var wire 1 / BREADY $end
$var reg 1 0 ARREADY $end
$var reg 32 1 RDATA [31:0] $end
$var reg 1 2 RVALID $end
$var reg 1 3 AWREADY $end
$var reg 1 4 WREADY $end
$var reg 1 5 BVALID $end
$var integer 32 6 i [31:0] $end
$scope module uut $end
$var wire 1 7 clk $end
$var wire 1 8 reset $end
$var wire 1 9 trigger $end
$var wire 5 : length [4:0] $end
$var wire 32 ; source_address [31:0] $end
$var wire 32 < destination_address [31:0] $end
$var reg 1 = done $end
$var reg 32 > ARADDR [31:0] $end
$var reg 1 ? ARVALID $end
$var wire 1 @ ARREADY $end
$var wire 32 A RDATA [31:0] $end
$var wire 1 B RVALID $end
$var reg 1 C RREADY $end
$var reg 32 D AWADDR [31:0] $end
$var reg 1 E AWVALID $end
$var wire 1 F AWREADY $end
$var reg 32 G WDATA [31:0] $end
$var reg 1 H WVALID $end
$var wire 1 I WREADY $end
$var wire 1 J BVALID $end
$var reg 1 K BREADY $end
$var reg 3 L read_state [2:0] $end
$var reg 3 M write_state [2:0] $end
$var reg 5 N read_count [4:0] $end
$var reg 5 O write_count [4:0] $end
$var reg 32 P curr_source_addr [31:0] $end
$var reg 32 Q curr_dest_addr [31:0] $end
$var reg 5 R transfer_length [4:0] $end
$var reg 1 S dma_active $end
$var reg 1 T FIFO_WR_EN $end
$var reg 1 U FIFO_RD_EN $end
$var wire 1 V FIFO_EMPTY $end
$var wire 1 W FIFO_FULL $end
$var reg 32 X fifo_wr_data [31:0] $end
$var wire 32 Y fifo_rd_data [31:0] $end
$var wire 5 Z fifo_count [4:0] $end
$scope module data_fifo $end
$var wire 1 7 clk $end
$var wire 1 8 reset $end
$var wire 1 [ FIFO_WR_EN $end
$var wire 1 \ FIFO_RD_EN $end
$var wire 1 W FIFO_FULL $end
$var wire 1 V FIFO_EMPTY $end
$var wire 5 Z count [4:0] $end
$var wire 32 ] wr_data [31:0] $end
$var wire 32 Y rd_data [31:0] $end
$var reg 4 ^ wr_ptr [3:0] $end
$var reg 4 _ rd_ptr [3:0] $end
$var reg 5 ` fifo_count [4:0] $end
$upscope $end
$upscope $end
$upscope $end
$enddefinitions $end

#0
$dumpvars
0!
1"
0#
b0 $
b0 %
b0 &
x'
bx (
x)
x*
bx +
x,
bx -
x.
x/
00
b0 1
02
03
04
05
b10000 6
07
18
09
b0 :
b0 ;
b0 <
x=
bx >
x?
0@
b0 A
0B
xC
bx D
xE
0F
bx G
xH
0I
0J
xK
bx L
bx M
bx N
bx O
bx P
bx Q
bx R
xS
xT
xU
xV
xW
bx X
bx Y
bx Z
x[
x\
bx ]
bx ^
bx _
bx `
$end

#5000
1!
0'
0)
0*
0,
0.
0/
17
0=
0?
0C
0E
0H
0K
b0 L
b0 M
b0 N
b0 O
b0 P
b0 Q
0S
0T
0U
1V
0W
b0 X
b0 Z
0[
0\
b0 ]
b0 ^
b0 _
b0 `

#10000
0!
0"
07
08

#15000
1!
17

#20000
0!
1#
b1000 $
b10000000000000000000000000000 %
b100000000000000000000000000000 &
07
19
b1000 :
b10000000000000000000000000000 ;
b100000000000000000000000000000 <

#25000
1!
17
b1 L
b10000000000000000000000000000 P
b100000000000000000000000000000 Q
b1000 R
1S

#30000
0!
0#
b0 6
07
09

#35000
1!
b10000000000000000000000000000 (
1)
17
b10000000000000000000000000000 >
1?
b10 L

#40000
0!
07

#45000
1!
17

#50000
0!
10
07
1@

#55000
1!
0)
1*
17
0?
1C

#60000
0!
b10100101101001010000000000000000 1
12
07
b10100101101001010000000000000000 A
1B

#65000
1!
0*
17
0C
b1 L
b1 N
b10000000000000000000000000100 P
1T
b10100101101001010000000000000000 X
1[
b10100101101001010000000000000000 ]

#70000
0!
13
07
1F

#75000
1!
b10000000000000000000000000100 (
1)
17
b10000000000000000000000000100 >
1?
b10 L
0V
b10100101101001010000000000000000 Y
b1 Z
b1 ^
b1 `

#80000
0!
14
07
1I

#85000
1!
0)
1*
17
0?
1C
b1 M
0T
b10 Z
0[
b10 ^
b10 `

#90000
0!
15
07
1J

#95000
1!
0*
b100000000000000000000000000000 +
1,
17
0C
b100000000000000000000000000000 D
1E
b1 L
b10 M
b10 N
b10000000000000000000000001000 P
1T
1[

#100000
0!
00
02
03
04
05
b1 6
07
0@
0B
0F
0I
0J

#105000
1!
b10000000000000000000000001000 (
1)
17
b10000000000000000000000001000 >
1?
b10 L
b11 Z
b11 ^
b11 `

#110000
0!
07

#115000
1!
17
0T
b100 Z
0[
b100 ^
b100 `

#120000
0!
10
07
1@

#125000
1!
0)
1*
17
0?
1C

#130000
0!
b10100101101001010000000000000001 1
12
07
b10100101101001010000000000000001 A
1B

#135000
1!
0*
17
0C
b1 L
b11 N
b10000000000000000000000001100 P
1T
b10100101101001010000000000000001 X
1[
b10100101101001010000000000000001 ]

#140000
0!
13
07
1F

#145000
1!
b10000000000000000000000001100 (
1)
0,
b10100101101001010000000000000000 -
1.
17
b10000000000000000000000001100 >
1?
0E
b10100101101001010000000000000000 G
1H
b10 L
1U
b101 Z
1\
b101 ^
b101 `

#150000
0!
14
07
1I

#155000
1!
0)
1*
0.
1/
17
0?
1C
0H
1K
b11 M
0T
0U
0[
0\
b110 ^
b1 _

#160000
0!
15
07
1J

#165000
1!
0*
0/
17
0C
0K
b1 L
b1 M
b100 N
b1 O
b10000000000000000000000010000 P
b100000000000000000000000000100 Q
1T
1[

#170000
0!
00
02
03
04
05
b10 6
07
0@
0B
0F
0I
0J

#175000
1!
b10000000000000000000000010000 (
1)
b100000000000000000000000000100 +
1,
17
b10000000000000000000000010000 >
1?
b100000000000000000000000000100 D
1E
b10 L
b10 M
b110 Z
b111 ^
b110 `

#180000
0!
07

#185000
1!
17
0T
b111 Z
0[
b1000 ^
b111 `

#190000
0!
10
07
1@

#195000
1!
0)
1*
17
0?
1C

#200000
0!
b10100101101001010000000000000010 1
12
07
b10100101101001010000000000000010 A
1B

#205000
1!
0*
17
0C
b1 L
b101 N
b10000000000000000000000010100 P
1T
b10100101101001010000000000000010 X
1[
b10100101101001010000000000000010 ]

#210000
0!
13
07
1F

#215000
1!
b10000000000000000000000010100 (
1)
0,
1.
17
b10000000000000000000000010100 >
1?
0E
1H
b10 L
1U
b1000 Z
1\
b1001 ^
b1000 `

#220000
0!
14
07
1I

#225000
1!
0)
1*
0.
1/
17
0?
1C
0H
1K
b11 M
0T
0U
0[
0\
b1010 ^
b10 _

#230000
0!
15
07
1J

#235000
1!
0*
0/
17
0C
0K
b1 L
b1 M
b110 N
b10 O
b10000000000000000000000011000 P
b100000000000000000000000001000 Q
1T
1[

#240000
0!
00
02
03
04
05
b11 6
07
0@
0B
0F
0I
0J

#245000
1!
b10000000000000000000000011000 (
1)
b100000000000000000000000001000 +
1,
17
b10000000000000000000000011000 >
1?
b100000000000000000000000001000 D
1E
b10 L
b10 M
b1001 Z
b1011 ^
b1001 `

#250000
0!
07

#255000
1!
17
0T
b1010 Z
0[
b1100 ^
b1010 `

#260000
0!
10
07
1@

#265000
1!
0)
1*
17
0?
1C

#270000
0!
b10100101101001010000000000000011 1
12
07
b10100101101001010000000000000011 A
1B

#275000
1!
0*
17
0C
b1 L
b111 N
b10000000000000000000000011100 P
1T
b10100101101001010000000000000011 X
1[
b10100101101001010000000000000011 ]

#280000
0!
13
07
1F

#285000
1!
b10000000000000000000000011100 (
1)
0,
1.
17
b10000000000000000000000011100 >
1?
0E
1H
b10 L
1U
b1011 Z
1\
b1101 ^
b1011 `

#290000
0!
14
07
1I

#295000
1!
0)
1*
0.
1/
17
0?
1C
0H
1K
b11 M
0T
0U
0[
0\
b1110 ^
b11 _

#300000
0!
15
07
1J

#305000
1!
0*
0/
17
0C
0K
b11 L
b1 M
b1000 N
b11 O
b10000000000000000000000100000 P
b100000000000000000000000001100 Q
1T
1[

#310000
0!
00
02
03
04
05
b100 6
07
0@
0B
0F
0I
0J

#315000
1!
b100000000000000000000000001100 +
1,
17
b100000000000000000000000001100 D
1E
b10 M
0T
b1100 Z
0[
b1111 ^
b1100 `

#320000
0!
07

#325000
1!
17

#330000
0!
10
07
1@

#335000
1!
17

#340000
0!
b10100101101001010000000000000100 1
12
07
b10100101101001010000000000000100 A
1B

#345000
1!
17

#350000
0!
13
07
1F

#355000
1!
0,
1.
17
0E
1H
1U
1\

#360000
0!
14
07
1I

#365000
1!
0.
1/
17
0H
1K
b11 M
0U
b10100101101001010000000000000001 Y
b1011 Z
0\
b100 _
b1011 `

#370000
0!
15
07
1J

#375000
1!
0/
17
0K
b1 M
b100 O
b100000000000000000000000010000 Q

#380000
0!
00
02
03
04
05
b101 6
07
0@
0B
0F
0I
0J

#385000
1!
b100000000000000000000000010000 +
1,
17
b100000000000000000000000010000 D
1E
b10 M

#390000
0!
07

#395000
1!
17

#400000
0!
10
07
1@

#405000
1!
17

#410000
0!
b10100101101001010000000000000101 1
12
07
b10100101101001010000000000000101 A
1B

#415000
1!
17

#420000
0!
13
07
1F

#425000
1!
0,
b10100101101001010000000000000001 -
1.
17
0E
b10100101101001010000000000000001 G
1H
1U
1\

#430000
0!
14
07
1I

#435000
1!
0.
1/
17
0H
1K
b11 M
0U
b1010 Z
0\
b101 _
b1010 `

#440000
0!
15
07
1J

#445000
1!
0/
17
0K
b1 M
b101 O
b100000000000000000000000010100 Q

#450000
0!
00
02
03
04
05
b110 6
07
0@
0B
0F
0I
0J

#455000
1!
b100000000000000000000000010100 +
1,
17
b100000000000000000000000010100 D
1E
b10 M

#460000
0!
07

#465000
1!
17

#470000
0!
10
07
1@

#475000
1!
17

#480000
0!
b10100101101001010000000000000110 1
12
07
b10100101101001010000000000000110 A
1B

#485000
1!
17

#490000
0!
13
07
1F

#495000
1!
0,
1.
17
0E
1H
1U
1\

#500000
0!
14
07
1I

#505000
1!
0.
1/
17
0H
1K
b11 M
0U
b1001 Z
0\
b110 _
b1001 `

#510000
0!
15
07
1J

#515000
1!
0/
17
0K
b1 M
b110 O
b100000000000000000000000011000 Q

#520000
0!
00
02
03
04
05
b111 6
07
0@
0B
0F
0I
0J

#525000
1!
b100000000000000000000000011000 +
1,
17
b100000000000000000000000011000 D
1E
b10 M

#530000
0!
07

#535000
1!
17

#540000
0!
10
07
1@

#545000
1!
17

#550000
0!
b10100101101001010000000000000111 1
12
07
b10100101101001010000000000000111 A
1B

#555000
1!
17

#560000
0!
13
07
1F

#565000
1!
0,
1.
17
0E
1H
1U
1\

#570000
0!
14
07
1I

#575000
1!
0.
1/
17
0H
1K
b11 M
0U
b1000 Z
0\
b111 _
b1000 `

#580000
0!
15
07
1J

#585000
1!
0/
17
0K
b1 M
b111 O
b100000000000000000000000011100 Q

#590000
0!
00
02
03
04
05
b1000 6
07
0@
0B
0F
0I
0J

#595000
1!
b100000000000000000000000011100 +
1,
17
b100000000000000000000000011100 D
1E
b10 M

